{
  "verbose": false,
  "ignore": ["build/**", "dist/**", "src/routes.ts"],
  "events": {
    "restart": "yarn predevelop"
  },
  "env": {
    "NODE_ENV": "development"
  },
  "execMap": {
    "ts": "node --require ts-node/register"
  }
}
